{
    "page": 1,
    "per_page": 6,
    "total": 12,
    "total_pages": 2,
    "data": [{
          "id": 1,
          "type": "Постоянная",
          "price": "800",
          "min": "20"
      },
      {
          "id": 2,
          "type": "Генеральная",
          "price": "1200",
          "min": "20"
      },
      {
          "id": 3,
          "type": "Разовая / После ремонта",
          "price": "1600",
          "min": "20"
      }
      ],
      "another": [{
          "id": 1,
          "title": "Мойка окон",
          "price": "200"
      }]
  }
  